{
  "result": {
    "item": "lucraftcore:dust_adamantium",
    "count": 3
  },
  "ingredients": [
    {
      "item": "#DUSTSTEEL"
    },
    {
      "item": "#DUSTSTEEL"
    },
    {
      "item": "#DUSTVIBRANIUM"
    }
  ],
  "type": "forge:ore_shapeless",
  "group": "lucraftcore:alloys"
}