{
  "result": {
    "item": "lucraftcore:ingot_adamantium",
    "count": 9
  },
  "pattern": [
    "X"
  ],
  "type": "forge:ore_shaped",
  "key": {
    "X": {
      "item": "#BLOCKADAMANTIUM"
    }
  },
  "group": "lucraftcore:block_to_ingots"
}